HW1/Problem3/communication-interface.vcd
$date
     Feb 13, 2019       23:17:18
$end

$version
 SystemC 2.3.2-Accellera --- Feb  5 2018 16:33:57
$end

$timescale
     1 ps
$end

$scope module SystemC $end
$var wire    1  aaaaa  Clock       $end
$var wire   12  aaaab  inData [11:0]  $end
$var wire    1  aaaac  reset       $end
$var wire    1  aaaad  clear       $end
$var wire    4  aaaae  payloadOut [3:0]  $end
$var wire    8  aaaaf  countOut [7:0]  $end
$var wire    8  aaaag  errorOut [7:0]  $end
$upscope $end
$enddefinitions  $end

$comment
All initial values are dumped below at time 0 sec = 0 timescale units.
$end

$dumpvars
0aaaaa
b0 aaaab
0aaaac
0aaaad
b0 aaaae
b0 aaaaf
b0 aaaag
$end

#10000
b111110001 aaaab
1aaaac

#40000
1aaaaa
b11100000 aaaab

#60000
0aaaaa

#80000
1aaaaa
0aaaac

#90000
b101110001 aaaab
1aaaac

#100000
0aaaaa

#110000
1aaaad

#120000
1aaaaa
b11100000 aaaab
0aaaad

#140000
0aaaaa

#160000
1aaaaa
b111110001 aaaab
b1111 aaaae
b1 aaaaf

#180000
0aaaaa

#190000
b11100000 aaaab

#200000
1aaaaa

#220000
0aaaaa

#240000
1aaaaa
b101110001 aaaab
b111 aaaae
b10 aaaaf
b1 aaaag

#260000
0aaaaa

#270000
b11100000 aaaab

#280000
1aaaaa

#300000
0aaaaa

#310000
b111110001 aaaab

#320000
1aaaaa
b1111 aaaae
b11 aaaaf

#330000
1aaaad

#340000
0aaaaa
b11100000 aaaab
0aaaad

#360000
1aaaaa

#380000
0aaaaa

#390000
b101110001 aaaab

#400000
1aaaaa
b111 aaaae
b100 aaaaf
b10 aaaag

#420000
0aaaaa
b11100000 aaaab

#440000
1aaaaa

#460000
0aaaaa
b111110001 aaaab

#480000
1aaaaa
b1111 aaaae
b101 aaaaf

#490000
b11100000 aaaab

#500000
0aaaaa

#520000
1aaaaa

#540000
0aaaaa
b101110001 aaaab

#550000
1aaaad

#560000
1aaaaa
0aaaad
b111 aaaae
b110 aaaaf
b11 aaaag

#570000
b11100000 aaaab

#580000
0aaaaa

#600000
1aaaaa

#610000
b111110001 aaaab

#620000
0aaaaa

#640000
1aaaaa
b11100000 aaaab

#660000
0aaaaa

#680000
1aaaaa

#690000
b101110001 aaaab

#700000
0aaaaa

#720000
1aaaaa
b11100000 aaaab

#740000
0aaaaa

#760000
1aaaaa
b111110001 aaaab
b1111 aaaae
b111 aaaaf

#770000
1aaaad

#780000
0aaaaa
0aaaad

#790000
b11100000 aaaab

#800000
1aaaaa

#820000
0aaaaa

#840000
1aaaaa
b101110001 aaaab
b111 aaaae
b1000 aaaaf
b100 aaaag

#860000
0aaaaa

#870000
b11100000 aaaab

#880000
1aaaaa

#900000
0aaaaa

#910000
b111110001 aaaab

#920000
1aaaaa
b1111 aaaae
b1001 aaaaf

#940000
0aaaaa
b11100000 aaaab

#960000
1aaaaa

#980000
0aaaaa

#990000
b101110001 aaaab
1aaaad

#1000000
1aaaaa
0aaaad
b111 aaaae
b1010 aaaaf
b101 aaaag

#1020000
0aaaaa
b11100000 aaaab

#1040000
1aaaaa

#1060000
0aaaaa
b111110001 aaaab

#1080000
1aaaaa
b1111 aaaae
b1011 aaaaf

#1090000
b11100000 aaaab

#1100000
0aaaaa

#1120000
1aaaaa

#1140000
0aaaaa
b101110001 aaaab

#1160000
1aaaaa
b111 aaaae
b1100 aaaaf
b110 aaaag

#1170000
b11100000 aaaab
0aaaac

#1180000
0aaaaa
1aaaac

#1200000
1aaaaa

#1210000
b111110001 aaaab
1aaaad

#1220000
0aaaaa
0aaaad

#1240000
1aaaaa
b11100000 aaaab

#1260000
0aaaaa

#1280000
1aaaaa

#1290000
b101110001 aaaab

#1300000
0aaaaa

#1320000
1aaaaa
b11100000 aaaab

#1340000
0aaaaa

#1360000
1aaaaa
b111110001 aaaab
b1111 aaaae
b1101 aaaaf

#1380000
0aaaaa

#1390000
b11100000 aaaab

#1400000
1aaaaa

#1420000
0aaaaa

#1430000
1aaaad

#1440000
1aaaaa
b101110001 aaaab
0aaaad
b111 aaaae
b1110 aaaaf
b111 aaaag

#1460000
0aaaaa

#1470000
b11100000 aaaab

#1480000
1aaaaa

#1500000
0aaaaa

#1510000
b111110001 aaaab

#1520000
1aaaaa
b1111 aaaae
b1111 aaaaf

#1540000
0aaaaa
b11100000 aaaab

#1560000
1aaaaa

#1580000
0aaaaa

#1590000
b101110001 aaaab

#1600000
1aaaaa
b111 aaaae
b10000 aaaaf
b1000 aaaag

#1620000
0aaaaa
b11100000 aaaab

#1640000
1aaaaa

#1650000
1aaaad

#1660000
0aaaaa
b111110001 aaaab
0aaaad

#1680000
1aaaaa
b1111 aaaae
b10001 aaaaf

#1690000
b11100000 aaaab

#1700000
0aaaaa

#1720000
1aaaaa

#1740000
0aaaaa
b101110001 aaaab

#1760000
1aaaaa
b111 aaaae
b10010 aaaaf
b1001 aaaag

#1770000
b11100000 aaaab

#1780000
0aaaaa

#1800000
1aaaaa

#1810000
b111110001 aaaab

#1820000
0aaaaa

#1840000
1aaaaa
b11100000 aaaab

#1860000
0aaaaa

#1870000
1aaaad

#1880000
1aaaaa
0aaaad

#1890000
b101110001 aaaab

#1900000
0aaaaa

#1920000
1aaaaa
b11100000 aaaab

#1940000
0aaaaa

#1960000
1aaaaa
b111110001 aaaab
b1111 aaaae
b10011 aaaaf

#1980000
0aaaaa

#1990000
b11100000 aaaab

#2000000
1aaaaa

#2020000
0aaaaa

#2040000
1aaaaa
b101110001 aaaab
b111 aaaae
b10100 aaaaf
b1010 aaaag

#2060000
0aaaaa

#2070000
b11100000 aaaab

#2080000
1aaaaa

#2090000
1aaaad

#2100000
0aaaaa
0aaaad

#2110000
b111110001 aaaab

#2120000
1aaaaa
b1111 aaaae
b10101 aaaaf

#2140000
0aaaaa
b11100000 aaaab

#2160000
1aaaaa

#2180000
0aaaaa

#2190000
b101110001 aaaab

#2200000
1aaaaa
b111 aaaae
b10110 aaaaf
b1011 aaaag

#2220000
0aaaaa
b11100000 aaaab

#2240000
1aaaaa

#2260000
0aaaaa
b111110001 aaaab
0aaaac

#2270000
1aaaac

#2280000
1aaaaa
b1111 aaaae
b10111 aaaaf

#2290000
b11100000 aaaab

#2300000
0aaaaa

#2310000
1aaaad

#2320000
1aaaaa
0aaaad

#2340000
0aaaaa
b101110001 aaaab

#2360000
1aaaaa
b111 aaaae
b11000 aaaaf
b1100 aaaag

#2370000
b11100000 aaaab

#2380000
0aaaaa

#2400000
1aaaaa

#2410000
b111110001 aaaab

#2420000
0aaaaa

#2440000
1aaaaa
b11100000 aaaab

#2460000
0aaaaa

#2480000
1aaaaa

#2490000
b101110001 aaaab

#2500000
0aaaaa

#2520000
1aaaaa
b11100000 aaaab

#2530000
1aaaad

#2540000
0aaaaa
0aaaad

#2560000
1aaaaa
b111110001 aaaab
b1111 aaaae
b11001 aaaaf

#2580000
0aaaaa

#2590000
b11100000 aaaab

#2600000
1aaaaa

#2620000
0aaaaa

#2640000
1aaaaa
b101110001 aaaab
b111 aaaae
b11010 aaaaf
b1101 aaaag

#2660000
0aaaaa

#2670000
b11100000 aaaab

#2680000
1aaaaa

#2700000
0aaaaa

#2710000
b111110001 aaaab

#2720000
1aaaaa
b1111 aaaae
b11011 aaaaf

#2740000
0aaaaa
b11100000 aaaab

#2750000
1aaaad

#2760000
1aaaaa
0aaaad

#2780000
0aaaaa

#2790000
b101110001 aaaab

#2800000
1aaaaa
b111 aaaae
b11100 aaaaf
b1110 aaaag

#2820000
0aaaaa
b11100000 aaaab

#2840000
1aaaaa

#2860000
0aaaaa
b111110001 aaaab

#2880000
1aaaaa
b1111 aaaae
b11101 aaaaf

#2890000
b11100000 aaaab

#2900000
0aaaaa

#2920000
1aaaaa

#2940000
0aaaaa
b101110001 aaaab

#2960000
1aaaaa
b111 aaaae
b11110 aaaaf
b1111 aaaag

#2970000
b11100000 aaaab
1aaaad

#2980000
0aaaaa
0aaaad

#3000000
1aaaaa

#3010000
b111110001 aaaab

#3020000
0aaaaa

#3040000
1aaaaa
b11100000 aaaab

#3060000
0aaaaa

#3080000
1aaaaa

#3090000
b101110001 aaaab

#3100000
0aaaaa

#3120000
1aaaaa
b11100000 aaaab

#3140000
0aaaaa

#3160000
1aaaaa
b111110001 aaaab
b1111 aaaae
b11111 aaaaf

#3180000
0aaaaa

#3190000
b11100000 aaaab
1aaaad

#3200000
1aaaaa
0aaaad

#3220000
0aaaaa

#3240000
1aaaaa
b101110001 aaaab
b111 aaaae
b100000 aaaaf
b10000 aaaag

#3260000
0aaaaa

#3270000
b11100000 aaaab

#3280000
1aaaaa

#3300000
0aaaaa

#3310000
b111110001 aaaab

#3320000
1aaaaa
b1111 aaaae
b100001 aaaaf

#3340000
0aaaaa
b11100000 aaaab

#3350000
0aaaac

#3360000
1aaaaa
1aaaac

#3380000
0aaaaa

#3390000
b101110001 aaaab

#3400000
1aaaaa
b111 aaaae
b100010 aaaaf
b10001 aaaag

#3410000
1aaaad

#3420000
0aaaaa
b11100000 aaaab
0aaaad

#3440000
1aaaaa

#3460000
0aaaaa
b111110001 aaaab

#3480000
1aaaaa
b1111 aaaae
b100011 aaaaf

#3490000
b11100000 aaaab

#3500000
0aaaaa

#3520000
1aaaaa

#3540000
0aaaaa
b101110001 aaaab

#3560000
1aaaaa
b111 aaaae
b100100 aaaaf
b10010 aaaag

#3570000
b11100000 aaaab

#3580000
0aaaaa

#3600000
1aaaaa

#3610000
b111110001 aaaab

#3620000
0aaaaa

#3630000
1aaaad

#3640000
1aaaaa
b11100000 aaaab
0aaaad

#3660000
0aaaaa

#3680000
1aaaaa

#3690000
b101110001 aaaab

#3700000
0aaaaa

#3720000
1aaaaa
b11100000 aaaab

#3740000
0aaaaa

#3760000
1aaaaa
b111110001 aaaab
b1111 aaaae
b100101 aaaaf

#3780000
0aaaaa

#3790000
b11100000 aaaab

#3800000
1aaaaa

#3820000
0aaaaa

#3840000
1aaaaa
b101110001 aaaab
b111 aaaae
b100110 aaaaf
b10011 aaaag

#3850000
1aaaad

#3860000
0aaaaa
0aaaad

#3870000
b11100000 aaaab

#3880000
1aaaaa

#3900000
0aaaaa

#3910000
b111110001 aaaab

#3920000
1aaaaa
b1111 aaaae
b100111 aaaaf

#3940000
0aaaaa
b11100000 aaaab

#3960000
1aaaaa

#3980000
0aaaaa

#3990000
b101110001 aaaab

