HW1/Problem1/sequence-detector.vcd
$date
     Feb 14, 2019       15:49:47
$end

$version
 SystemC 2.3.2-Accellera --- Feb  5 2018 16:33:57
$end

$timescale
     1 ps
$end

$scope module SystemC $end
$var wire    1  aaaaa  Clock       $end
$var wire    1  aaaab  Reset       $end
$var wire    1  aaaac  Clear       $end
$var wire    1  aaaad  Input       $end
$var wire    1  aaaae  State       $end
$var wire    1  aaaaf  Output       $end
$upscope $end
$enddefinitions  $end

$comment
All initial values are dumped below at time 0 sec = 0 timescale units.
$end

$dumpvars
0aaaaa
0aaaab
0aaaac
0aaaad
0aaaae
0aaaaf
$end

#10000
1aaaab

#25000
1aaaad

#40000
1aaaaa
1aaaae

#60000
0aaaaa

#80000
1aaaaa

#90000
0aaaad

#100000
0aaaaa
0aaaab
0aaaae

#110000
1aaaab

#120000
1aaaaa
1aaaad

#140000
0aaaaa
1aaaac
1aaaae

#150000
0aaaac

#160000
1aaaaa
0aaaad
0aaaae

#180000
0aaaaa

#185000
1aaaad

#200000
1aaaaa
1aaaae

#220000
0aaaaa

#240000
1aaaaa
1aaaaf

#250000
0aaaad

#260000
0aaaaa

#280000
1aaaaa
1aaaad
0aaaaf

#300000
0aaaaa

#320000
1aaaaa
0aaaad
0aaaae

#340000
0aaaaa

#345000
1aaaad

#360000
1aaaaa
1aaaae

#380000
0aaaaa

#400000
1aaaaa
1aaaaf

#410000
0aaaad

#420000
0aaaaa

#440000
1aaaaa
1aaaad
0aaaaf

#460000
0aaaaa

#480000
1aaaaa
0aaaad
0aaaae

#500000
0aaaaa

#505000
1aaaad

#520000
1aaaaa
1aaaae

#540000
0aaaaa

#560000
1aaaaa
1aaaaf

#570000
0aaaad

#580000
0aaaaa

#600000
1aaaaa
1aaaad
0aaaaf

#620000
0aaaaa

#640000
1aaaaa
0aaaad
0aaaae

#660000
0aaaaa

#665000
1aaaad

#680000
1aaaaa
1aaaae

#700000
0aaaaa

#720000
1aaaaa
1aaaaf

#730000
0aaaad

#740000
0aaaaa

#760000
1aaaaa
1aaaad
0aaaaf

#780000
0aaaaa

#800000
1aaaaa
0aaaad
0aaaae

#820000
0aaaaa

#825000
1aaaad

#840000
1aaaaa
1aaaae

#860000
0aaaaa

#880000
1aaaaa
1aaaaf

#890000
0aaaad

#900000
0aaaaa

#920000
1aaaaa
1aaaad
0aaaaf

#940000
0aaaaa

#960000
1aaaaa
0aaaad
0aaaae

#980000
0aaaaa

#985000
1aaaad

#1000000
1aaaaa
1aaaae

#1020000
0aaaaa

#1040000
1aaaaa
1aaaaf

#1050000
1aaaac
0aaaad
0aaaaf

#1060000
0aaaaa
0aaaac

#1080000
1aaaaa
1aaaad

#1100000
0aaaaa

#1120000
1aaaaa
0aaaad
0aaaae

#1140000
0aaaaa

#1145000
1aaaad

#1160000
1aaaaa
1aaaae

#1180000
0aaaaa

#1200000
1aaaaa
1aaaaf

#1210000
0aaaad

#1220000
0aaaaa

#1240000
1aaaaa
1aaaad
0aaaaf

#1250000
0aaaab
0aaaae

#1260000
0aaaaa
1aaaab

#1280000
1aaaaa
0aaaad

#1300000
0aaaaa

#1305000
1aaaad

#1320000
1aaaaa

#1340000
0aaaaa

#1360000
1aaaaa

#1370000
0aaaad

#1380000
0aaaaa

#1400000
1aaaaa
1aaaad

#1420000
0aaaaa

#1440000
1aaaaa
0aaaad

#1460000
0aaaaa

#1465000
1aaaad

#1480000
1aaaaa

#1500000
0aaaaa

#1520000
1aaaaa

#1530000
0aaaad

#1540000
0aaaaa

#1560000
1aaaaa
1aaaad

#1580000
0aaaaa

#1600000
1aaaaa
0aaaad

#1620000
0aaaaa

#1625000
1aaaad

#1640000
1aaaaa

#1660000
0aaaaa

#1680000
1aaaaa

#1690000
0aaaad

#1700000
0aaaaa

#1720000
1aaaaa
1aaaad

#1740000
0aaaaa

#1760000
1aaaaa
0aaaad

#1780000
0aaaaa

#1785000
1aaaad

#1800000
1aaaaa

#1820000
0aaaaa

#1840000
1aaaaa

#1850000
0aaaad

#1860000
0aaaaa

#1880000
1aaaaa
1aaaad

#1900000
0aaaaa

#1920000
1aaaaa
0aaaad

#1940000
0aaaaa

#1945000
1aaaad

#1960000
1aaaaa
1aaaac
1aaaae

#1970000
0aaaac

#1980000
0aaaaa

#2000000
1aaaaa

#2010000
0aaaad

#2020000
0aaaaa

#2040000
1aaaaa
1aaaad

#2060000
0aaaaa

#2080000
1aaaaa
0aaaad
0aaaae

#2100000
0aaaaa

#2105000
1aaaad

#2120000
1aaaaa
1aaaae

#2140000
0aaaaa

#2160000
1aaaaa
1aaaaf

#2170000
0aaaad

#2180000
0aaaaa

#2200000
1aaaaa
1aaaad
0aaaaf

#2220000
0aaaaa

#2240000
1aaaaa
0aaaad
0aaaae

#2260000
0aaaaa

#2265000
1aaaad

#2280000
1aaaaa
1aaaae

#2300000
0aaaaa

#2320000
1aaaaa
1aaaaf

#2330000
0aaaad

#2340000
0aaaaa

#2360000
1aaaaa
1aaaad
0aaaaf

#2380000
0aaaaa

#2400000
1aaaaa
0aaaab
0aaaad
0aaaae

#2410000
1aaaab

#2420000
0aaaaa

#2425000
1aaaad

#2440000
1aaaaa
1aaaae

#2460000
0aaaaa

#2480000
1aaaaa

#2490000
0aaaad

#2500000
0aaaaa

#2520000
1aaaaa
1aaaad

#2540000
0aaaaa

#2560000
1aaaaa
0aaaad
0aaaae

#2580000
0aaaaa

#2585000
1aaaad

#2600000
1aaaaa
1aaaae

#2620000
0aaaaa

#2640000
1aaaaa
1aaaaf

#2650000
0aaaad

#2660000
0aaaaa

#2680000
1aaaaa
1aaaad
0aaaaf

#2700000
0aaaaa

#2720000
1aaaaa
0aaaad
0aaaae

#2740000
0aaaaa

#2745000
1aaaad

#2760000
1aaaaa
1aaaae

#2780000
0aaaaa

#2800000
1aaaaa
1aaaaf

#2810000
0aaaad

#2820000
0aaaaa

#2840000
1aaaaa
1aaaad
0aaaaf

#2860000
0aaaaa

#2870000
1aaaac

#2880000
1aaaaa
0aaaac
0aaaad
0aaaae

#2900000
0aaaaa

#2905000
1aaaad

#2920000
1aaaaa
1aaaae

#2940000
0aaaaa

#2960000
1aaaaa
1aaaaf

#2970000
0aaaad

#2980000
0aaaaa

#3000000
1aaaaa
1aaaad
0aaaaf

#3020000
0aaaaa

#3040000
1aaaaa
0aaaad
0aaaae

#3060000
0aaaaa

#3065000
1aaaad

#3080000
1aaaaa
1aaaae

#3100000
0aaaaa

#3120000
1aaaaa
1aaaaf

#3130000
0aaaad

#3140000
0aaaaa

#3160000
1aaaaa
1aaaad
0aaaaf

#3180000
0aaaaa

#3200000
1aaaaa
0aaaad
0aaaae

#3220000
0aaaaa

#3225000
1aaaad

#3240000
1aaaaa
1aaaae

#3260000
0aaaaa

#3280000
1aaaaa
1aaaaf

#3290000
0aaaad

#3300000
0aaaaa

#3320000
1aaaaa
1aaaad
0aaaaf

#3340000
0aaaaa

#3360000
1aaaaa
0aaaad
0aaaae

#3380000
0aaaaa

#3385000
1aaaad

#3400000
1aaaaa
1aaaae

#3420000
0aaaaa

#3440000
1aaaaa
1aaaaf

#3450000
0aaaad

#3460000
0aaaaa

#3480000
1aaaaa
1aaaad
0aaaaf

#3500000
0aaaaa

#3520000
1aaaaa
0aaaad
0aaaae

#3540000
0aaaaa

#3545000
1aaaad

#3550000
0aaaab

#3560000
1aaaaa
1aaaab
1aaaae

#3580000
0aaaaa

#3600000
1aaaaa

#3610000
0aaaad

#3620000
0aaaaa

#3640000
1aaaaa
1aaaad

#3660000
0aaaaa

#3680000
1aaaaa
0aaaad
0aaaae

#3700000
0aaaaa

#3705000
1aaaad

#3720000
1aaaaa
1aaaae

#3740000
0aaaaa

#3760000
1aaaaa
1aaaaf

#3770000
0aaaad

#3780000
0aaaaa
1aaaac
0aaaaf

#3790000
0aaaac

#3800000
1aaaaa
1aaaad

#3820000
0aaaaa

#3840000
1aaaaa
0aaaad
0aaaae

#3860000
0aaaaa

#3865000
1aaaad

#3880000
1aaaaa
1aaaae

#3900000
0aaaaa

#3920000
1aaaaa
1aaaaf

#3930000
0aaaad

#3940000
0aaaaa

#3960000
1aaaaa
1aaaad
0aaaaf

